<svg width="50" height="50" viewBox="0 0 50 50" fill="none" xmlns="http://www.w3.org/2000/svg">
<path d="M25 50C38.8071 50 50 38.8071 50 25C50 11.1929 38.8071 0 25 0C11.1929 0 0 11.1929 0 25C0 38.8071 11.1929 50 25 50Z" fill="white"/>
<path d="M35.3 12.9C35.2 13 35 13.1 34.9 13.2C29.3 18.8 24.5 23.5 19.5 27.9L17 24.7C16.7 24.3 16.4 24.3 16.1 24.3C15.8 24.3 15.6 24.4 15.4 24.6C14 25.5 12.6 26.3 11.3 27C10.9 27.2 10.7 27.5 10.6 28C10.4 28.5 10.5 28.9 10.9 29.3C12.1 30.4 13.2 31.7001 14.2 32.9001C15.4 34.2001 16.6 35.6 17.9 36.8C18 36.8 18 36.9001 18.1 36.9001C18.3 37.2001 18.6 37.4001 19 37.4001C19.2 37.4001 19.5 37.3001 19.7 37.2001C23.4 34.4001 26.7 31.2 29.2 28.8C29.9 28.1 30.7 27.4 31.4 26.7C33.9 24.2 36.6 21.6 39.1 19C39.2 18.8 39.4 18.7 39.4 18.5C39.6 18.1 39.6 17.7 39.4 17.3C38.5 16 37.8 14.8 37.1 13.6C36.9 13.2 36.5 13 36.1 13C35.7 12.7 35.5 12.8 35.3 12.9ZM35.6 16C35.9 16.5 36.2 17 36.6 17.6C34.8 19.5 32.9 21.4 31.1 23.2C30.1 24.2 29.1 25.1 28.2 26.1C25.5 28.8 22.5 31.7 19.1 34.3C18 33.3 17 32.1 16.1 31C15.4 30.2001 14.6 29.3 13.8 28.5C14.5 28.1 15.1 27.7 15.9 27.3L18.6 30.5C18.9 30.9 19.2 30.9 19.5 30.9C19.8 30.9 20.1 30.8001 20.3 30.6C20.4 30.6 20.4 30.5 20.5 30.4C25.7 25.8 30.9 20.8 35.6 16Z" fill="#42DBA5"/>
</svg>
