<svg width="50" height="50" viewBox="0 0 50 50" fill="none" xmlns="http://www.w3.org/2000/svg">
<path d="M25 50C38.8071 50 50 38.8071 50 25C50 11.1929 38.8071 0 25 0C11.1929 0 0 11.1929 0 25C0 38.8071 11.1929 50 25 50Z" fill="white"/>
<path d="M37 13.5001C37 13.1001 36.9 12.9001 36.7 12.7001C36.5 12.5001 36.3 12.5001 36.1 12.5001H31.9V12.3001C31.9 12.0001 31.9 11.8001 31.9 11.5001C31.9 11.4001 31.9 11.3001 31.9 11.2001C31.9 10.9001 31.8 10.6001 31.6 10.4001C31.4 10.2001 31.2 10.2001 31 10.2001C30.2 10.2001 29.4 10.2001 28.6 10.2001H28.4V10.0001C28.4 9.2001 28.3 8.5001 28.2 7.8001C28.1 7.4001 27.7 7.1001 27.3 7.1001H27.2H23.5C23.2 7.1001 23 7.2001 22.8 7.4001C22.6 7.6001 22.5 8.0001 22.6 8.3001V8.4001V8.5001C22.6 8.6001 22.5 8.7001 22.5 8.8001V10.1001H22.3C21.5 10.1001 20.7 10.0001 19.9 10.0001C19.8 10.0001 19.7 10.0001 19.7 10.0001C19.2 10.0001 18.8 10.3001 18.8 10.9001C18.8 11.2001 18.8 11.5001 18.8 11.9001V12.1001H18.6C17.2 12.1001 15.7 12.1001 14.3 12.3001C14.2 12.3001 14.2 12.3001 14.2 12.3001H14.1C13.6 12.3001 13.2 12.6001 13.2 13.2001V16.8001C13.2 17.0001 13.3 17.2001 13.4 17.3001V17.4001C13.4 25.5001 13.4 32.8001 13 40.3001C13 40.4001 13 40.5001 13 40.6001C13 40.9001 13 41.1001 13.1 41.2001C13.2 41.3001 13.4 41.4001 13.6 41.5001C20.9 42.6001 28.2 42.7001 36.2 42.7001C36.8 42.7001 37 42.3001 37 42.1001C37.1 41.9001 37.2 41.7001 37.2 41.5001V14.2001C37.2 13.9001 37.1 13.7001 37 13.5001ZM24.4 9.0001H26.5V9.2001C26.5 9.4001 26.5 9.7001 26.5 9.9001V10.1001H25.8C25.4 10.1001 24.9 10.1001 24.5 10.1001H24.3L24.4 9.0001ZM20.2 16.0001C20.3 15.5001 20.3 14.2001 20.4 13.2001C20.4 12.7001 20.4 12.3001 20.5 12.1001V11.9001H20.7C23.9 12.0001 27 12.1001 29.9 12.1001H30V12.3001C30 13.5001 30 15.6001 30.1 16.3001V16.5001H29.9C28.2 16.4001 26.5 16.4001 24.9 16.3001C23.4 16.3001 21.8 16.2001 20.3 16.2001H20.1L20.2 16.0001ZM35.4 41.0001H35.2C28 41.0001 21.5 40.9001 14.9 40.0001H14.7V39.8001C15 32.4001 15 25.0001 15 16.8001C15 16.6001 14.9 16.4001 14.8 16.3001V14.1001H15C16.2 14.0001 17.3 14.0001 18.2 14.0001H18.4V14.2001C18.4 14.3001 18.4 14.8001 18.4 15.2001C18.4 15.9001 18.4 16.2001 18.4 16.3001C18.4 16.5001 18.4 16.7001 18.4 16.8001C18.3 17.1001 18.4 17.5001 18.6 17.7001C18.8 17.9001 19 18.0001 19.3 18.0001C21.2 18.1001 23.2 18.1001 25.1 18.2001C27 18.3001 29 18.3001 30.9 18.4001C31.2 18.4001 31.4 18.3001 31.5 18.2001C31.7 18.1001 31.8 18.0001 31.9 17.9001V17.8001C31.9 17.7001 31.9 17.6001 31.9 17.6001C32 17.4001 32.1 17.3001 32.1 17.1001C32.1 17.0001 32.1 16.4001 32.1 15.7001C32.1 15.3001 32.1 14.8001 32.1 14.7001V14.5001H35.5L35.4 41.0001Z" fill="#2BA3EF"/>
<path d="M31.3 21.5001C31.2 21.5001 31.1 21.6001 31.1 21.7001C27.7 25.1001 24.8 27.9001 21.8 30.6001L20.3 28.7001C20.1 28.5001 19.9 28.4001 19.8 28.4001C19.6 28.4001 19.5 28.5001 19.3 28.6001C18.4 29.2001 17.6 29.6001 16.8 30.0001C16.6 30.1001 16.4 30.3001 16.4 30.6001C16.3 30.9001 16.4 31.2001 16.6 31.4001C17.3 32.1001 18 32.8001 18.6 33.6001C19.3 34.4001 20 35.2001 20.9 36.0001L21 36.1001C21.1 36.3001 21.3 36.4001 21.5 36.4001C21.6 36.4001 21.8 36.3001 21.9 36.2001C24.2 34.5001 26.2 32.6001 27.7 31.1001C28.1 30.7001 28.6 30.2001 29 29.8001C30.5 28.3001 32.1 26.7001 33.7 25.1001C33.8 25.0001 33.9 24.9001 33.9 24.8001C34 24.6001 34 24.3001 33.9 24.0001C33.4 23.2001 32.9 22.5001 32.5 21.8001C32.4 21.6001 32.1 21.4001 31.9 21.4001C31.6 21.4001 31.4 21.5001 31.3 21.5001ZM31.5 23.4001C31.7 23.7001 31.9 24.0001 32.1 24.4001C31 25.5001 29.9 26.7001 28.7 27.8001C28.1 28.4001 27.5 29.0001 26.9 29.6001C25.2 31.3001 23.4 33.0001 21.4 34.6001C20.8 34.0001 20.1 33.3001 19.6 32.6001C19.2 32.1001 18.7 31.6001 18.2 31.1001C18.6 30.9001 19 30.6001 19.4 30.4001L21 32.4001C21.2 32.6001 21.4 32.7001 21.5 32.7001C21.7 32.7001 21.8 32.6001 22 32.5001L22.1 32.4001C25.5 29.4001 28.6 26.3001 31.5 23.4001Z" fill="#42DBA5"/>
</svg>
